{
    "version": "https://jsonfeed.org/version/1",
    "title": "enneo",
    "description": "",
    "home_page_url": "https://ravisand.gitlab.io/publii",
    "feed_url": "https://ravisand.gitlab.io/publii/feed.json",
    "user_comment": "",
    "author": {
        "name": "Ravi Sand"
    },
    "items": [
        {
            "id": "https://ravisand.gitlab.io/publii/ennea9/",
            "url": "https://ravisand.gitlab.io/publii/ennea9/",
            "title": "ennea9",
            "author": {
                "name": "Ravi Sand"
            },
            "tags": [
            ],
            "date_published": "2021-01-30T15:33:04-05:00",
            "date_modified": "2021-01-30T15:33:04-05:00"
        },
        {
            "id": "https://ravisand.gitlab.io/publii/92/",
            "url": "https://ravisand.gitlab.io/publii/92/",
            "title": "ennea6",
            "summary": "5 8 2 6 9 3 7 1 4",
            "content_html": "<table class=\"MsoTableGrid align-center\" style=\"border-collapse: collapse; border: none; height: 337px;\" border=\"1\" cellspacing=\"0\" cellpadding=\"0\">\n<tbody>\n<tr style=\"mso-yfti-irow: 0; mso-yfti-firstrow: yes;\">\n<td style=\"width: 230px; border: 1pt solid windowtext; padding-top: 0cm; padding-right: 5.4pt; padding-bottom: 0cm; height: 112px;\" valign=\"top\">\n<p>5</p>\n<p> </p>\n</td>\n<td style=\"width: 230px; border-top: 1pt solid windowtext; border-right: 1pt solid windowtext; border-bottom: 1pt solid windowtext; border-image: initial; border-left: none; padding-top: 0cm; padding-right: 5.4pt; padding-bottom: 0cm; height: 112px;\" valign=\"top\">\n<p>8</p>\n<p> </p>\n</td>\n<td style=\"width: 230px; border-top: 1pt solid windowtext; border-right: 1pt solid windowtext; border-bottom: 1pt solid windowtext; border-image: initial; border-left: none; padding: 0cm 5.4pt; height: 112px;\" valign=\"top\">\n<p class=\"MsoNormal\" style=\"tab-stops: 45.8pt 91.6pt 137.4pt 183.2pt 229.0pt 274.8pt 320.6pt 366.4pt 412.2pt 458.0pt 503.8pt 549.6pt 595.4pt 641.2pt 687.0pt 732.8pt;\">2</p>\n</td>\n</tr>\n<tr style=\"mso-yfti-irow: 1;\">\n<td style=\"width: 230px; border-right: 1pt solid windowtext; border-bottom: 1pt solid windowtext; border-left: 1pt solid windowtext; border-image: initial; border-top: none; padding: 0cm 5.4pt; height: 99px;\" valign=\"top\">\n<p class=\"MsoNormal\" style=\"tab-stops: 45.8pt 91.6pt 137.4pt 183.2pt 229.0pt 274.8pt 320.6pt 366.4pt 412.2pt 458.0pt 503.8pt 549.6pt 595.4pt 641.2pt 687.0pt 732.8pt;\">6</p>\n</td>\n<td style=\"width: 230px; border-top: none; border-left: none; border-bottom: 1pt solid windowtext; border-right: 1pt solid windowtext; padding: 0cm 5.4pt; height: 99px;\" valign=\"top\">\n<p class=\"MsoNormal align-center\" style=\"tab-stops: 45.8pt 91.6pt 137.4pt 183.2pt 229.0pt 274.8pt 320.6pt 366.4pt 412.2pt 458.0pt 503.8pt 549.6pt 595.4pt 641.2pt 687.0pt 732.8pt;\">9</p>\n</td>\n<td style=\"width: 230px; border-top: none; border-left: none; border-bottom: 1pt solid windowtext; border-right: 1pt solid windowtext; padding: 0cm 5.4pt; height: 99px;\" valign=\"top\">\n<p class=\"MsoNormal\" style=\"tab-stops: 45.8pt 91.6pt 137.4pt 183.2pt 229.0pt 274.8pt 320.6pt 366.4pt 412.2pt 458.0pt 503.8pt 549.6pt 595.4pt 641.2pt 687.0pt 732.8pt;\">3</p>\n</td>\n</tr>\n<tr style=\"mso-yfti-irow: 2; mso-yfti-lastrow: yes;\">\n<td style=\"width: 230px; border-right: 1pt solid windowtext; border-bottom: 1pt solid windowtext; border-left: 1pt solid windowtext; border-image: initial; border-top: none; padding: 0cm 5.4pt; height: 126px;\" valign=\"top\">\n<p class=\"MsoNormal\" style=\"tab-stops: 45.8pt 91.6pt 137.4pt 183.2pt 229.0pt 274.8pt 320.6pt 366.4pt 412.2pt 458.0pt 503.8pt 549.6pt 595.4pt 641.2pt 687.0pt 732.8pt;\">7</p>\n</td>\n<td style=\"width: 230px; border-top: none; border-left: none; border-bottom: 1pt solid windowtext; border-right: 1pt solid windowtext; padding: 0cm 5.4pt; height: 126px;\" valign=\"top\">\n<p class=\"MsoNormal\" style=\"tab-stops: 45.8pt 91.6pt 137.4pt 183.2pt 229.0pt 274.8pt 320.6pt 366.4pt 412.2pt 458.0pt 503.8pt 549.6pt 595.4pt 641.2pt 687.0pt 732.8pt;\">1</p>\n</td>\n<td style=\"width: 230px; border-top: none; border-left: none; border-bottom: 1pt solid windowtext; border-right: 1pt solid windowtext; padding: 0cm 5.4pt; height: 126px;\" valign=\"top\">\n<p class=\"MsoNormal\" style=\"tab-stops: 45.8pt 91.6pt 137.4pt 183.2pt 229.0pt 274.8pt 320.6pt 366.4pt 412.2pt 458.0pt 503.8pt 549.6pt 595.4pt 641.2pt 687.0pt 732.8pt;\">4</p>\n</td>\n</tr>\n</tbody>\n</table>",
            "author": {
                "name": "Ravi Sand"
            },
            "tags": [
            ],
            "date_published": "2021-01-29T23:53:52-05:00",
            "date_modified": "2021-01-30T15:32:17-05:00"
        },
        {
            "id": "https://ravisand.gitlab.io/publii/fractal/",
            "url": "https://ravisand.gitlab.io/publii/fractal/",
            "title": "ennea5",
            "content_html": "<figure class=\"transparent\"><img loading=\"lazy\"  src=\"https://upload.wikimedia.org/wikipedia/commons/c/c0/Menger_4.PNG\" data-is-external-image=\"true\"  alt=\"https://upload.wikimedia.org/wikipedia/commons/c/c0/Menger_4.PNG\" width=\"605\" height=\"605\"></figure>",
            "author": {
                "name": "Ravi Sand"
            },
            "tags": [
            ],
            "date_published": "2021-01-23T18:48:01-05:00",
            "date_modified": "2021-01-30T15:32:10-05:00"
        },
        {
            "id": "https://ravisand.gitlab.io/publii/simply-9/",
            "url": "https://ravisand.gitlab.io/publii/simply-9/",
            "title": "ennea4",
            "summary": " 5 EXPERTISE 8 GOUVERNANCE 2 INCLUSION 6 OBJECTIFS 9 RÉALITÉ 3&hellip;",
            "content_html": "<p> </p>\n<table>\n<tbody>\n<tr>\n<td class=\"align-center\" style=\"width: 214px;\">\n<p><strong>5</strong></p>\n<p><strong>EXPERTISE</strong></p>\n</td>\n<td class=\"align-center\" style=\"width: 217px;\">\n<p><strong>8</strong></p>\n<p><strong>GOUVERNANCE</strong></p>\n</td>\n<td class=\"align-center\" style=\"width: 231px;\">\n<p><strong>2</strong></p>\n<p><strong>INCLUSION</strong></p>\n</td>\n</tr>\n<tr>\n<td class=\"align-center\" style=\"width: 214px;\">\n<p><strong>6</strong></p>\n<p><strong>OBJECTIFS</strong></p>\n</td>\n<td class=\"align-center\" style=\"width: 217px;\">\n<p><strong>9</strong></p>\n<p><strong>RÉALITÉ</strong></p>\n</td>\n<td class=\"align-center\" style=\"width: 231px;\">\n<p><strong>3</strong></p>\n<p><strong>RÔLES</strong></p>\n</td>\n</tr>\n<tr>\n<td class=\"align-center\" style=\"width: 214px;\">\n<p><strong>7</strong></p>\n<p><strong>OPTIONS</strong></p>\n</td>\n<td class=\"align-center\" style=\"width: 217px;\">\n<p><strong>1</strong></p>\n<p><strong>MISSION</strong></p>\n</td>\n<td class=\"align-center\" style=\"width: 231px;\">\n<p><strong>4</strong></p>\n<p class=\"align-center\"><strong>EXPRESSION</strong></p>\n</td>\n</tr>\n<tr>\n<td class=\"align-center\" style=\"width: 214px;\">\n<p><strong>C</strong></p>\n</td>\n<td class=\"align-center\" style=\"width: 217px;\">\n<p><strong>A</strong></p>\n</td>\n<td class=\"align-center\" style=\"width: 231px;\">\n<p><strong>B</strong></p>\n</td>\n</tr>\n</tbody>\n</table>\n<p> </p>\n<p> </p>\n<p> </p>\n<table class=\" align-center\" style=\"border-collapse: collapse; border-style: double; height: 332px; width: 325px;\">\n<tbody>\n<tr>\n<td class=\"align-center\" style=\"width: 107px;\">\n<p><strong>5</strong></p>\n<p><strong>ANALYSE</strong></p>\n</td>\n<td class=\"align-center\" style=\"width: 121px;\">\n<p><strong>8</strong></p>\n<p><strong>OBJECTIFS</strong></p>\n</td>\n<td class=\"align-center\" style=\"width: 136px;\">\n<p><strong>2</strong></p>\n<p><strong>INCLUSION</strong></p>\n</td>\n</tr>\n<tr>\n<td class=\"align-center\" style=\"width: 107px;\">\n<p><strong>6</strong></p>\n<p><strong>PLANS</strong></p>\n</td>\n<td class=\"align-center\" style=\"width: 121px;\">\n<p><strong>9</strong></p>\n<p><strong>RÉALITÉ</strong></p>\n</td>\n<td class=\"align-center\" style=\"width: 136px;\">\n<p><strong>3</strong></p>\n<p><strong>RÔLES</strong></p>\n</td>\n</tr>\n<tr>\n<td class=\"align-center\" style=\"width: 107px;\">\n<p><strong>7</strong></p>\n<p><strong>OPTIONS</strong></p>\n</td>\n<td class=\"align-center\" style=\"width: 121px;\">\n<p><strong>1</strong></p>\n<p><strong>MISSION</strong></p>\n</td>\n<td class=\"align-center\" style=\"width: 136px;\">\n<p><strong>4</strong></p>\n<p><strong>EXPRESSION</strong></p>\n</td>\n</tr>\n</tbody>\n</table>\n<h1 class=\"entry-title\">rôle”, “responsabilité”, “activité”</h1>\n<p> </p>\n<table style=\"border-collapse: collapse; width: 100%;\" border=\"1\">\n<tbody>\n<tr>\n<td class=\"align-center\" style=\"width: 229px;\">Objectif</td>\n<td class=\"align-center\" style=\"width: 227px;\">Activité</td>\n<td class=\"align-center\" style=\"width: 234px; background-color: #fbeeb8;\">\n<p>parties prenantes</p>\n<p>/communications</p>\n</td>\n</tr>\n<tr>\n<td class=\"align-center\" style=\"width: 229px;\">plans/instructions</td>\n<td class=\"align-center\" style=\"width: 227px;\">pilotage/coordination</td>\n<td class=\"align-center\" style=\"width: 234px;\">intervenants/compétences</td>\n</tr>\n<tr>\n<td class=\"align-center\" style=\"width: 229px;\">solutions</td>\n<td class=\"align-center\" style=\"width: 227px;\">Mission</td>\n<td class=\"align-center\" style=\"width: 234px;\">changement/performance</td>\n</tr>\n</tbody>\n</table>\n<table style=\"border-collapse: collapse; width: 100%;\" border=\"1\">\n<tbody>\n<tr>\n<td class=\"align-center\" style=\"width: 229px;\">analyses/informations</td>\n<td class=\"align-center\" style=\"width: 227px;\">Activité</td>\n<td class=\"align-center\" style=\"width: 234px; background-color: #fbeeb8;\">\n<p>parties prenantes</p>\n<p>/communications</p>\n</td>\n</tr>\n<tr>\n<td class=\"align-center\" style=\"width: 229px;\">planification</td>\n<td class=\"align-center\" style=\"width: 227px;\">exécution</td>\n<td class=\"align-center\" style=\"width: 234px;\">intervenants/compétences</td>\n</tr>\n<tr>\n<td class=\"align-center\" style=\"width: 229px;\">solutions</td>\n<td class=\"align-center\" style=\"width: 227px;\">qualité/contrôle</td>\n<td class=\"align-center\" style=\"width: 234px;\">changement/performance</td>\n</tr>\n</tbody>\n</table>\n<p> </p>\n<p><img loading=\"lazy\" src=\"https://www.wevalgo.com/images/easyblog_articles/45/Lean-5-principles.png\" data-is-external-image=\"true\"  width=\"1200\" height=\"801\"></p>\n<p> </p>\n<p><img loading=\"lazy\" src=\"https://www.pmi.org/kasimage/4b3b06d2-0b79-40f4-b012-b558c524e45e/portfolio.png\" data-is-external-image=\"true\"  alt=\"The OPM business context\" width=\"674\" height=\"435\"></p>",
            "author": {
                "name": "Ravi Sand"
            },
            "tags": [
            ],
            "date_published": "2021-01-23T16:33:56-05:00",
            "date_modified": "2021-01-30T15:32:02-05:00"
        },
        {
            "id": "https://ravisand.gitlab.io/publii/g27/",
            "url": "https://ravisand.gitlab.io/publii/g27/",
            "title": "ennea3",
            "summary": "5 8 2 - parties prenantes identification communications parties prenantes /communicationsplans/instructionspilotage/coordinationintervenants/compétencessolutionsqualité/contrôlechangement/performance",
            "content_html": "<table class=\"align-left align-center\" style=\"border-collapse: collapse; width: 0%; height: 497px;\" border=\"1\">\n<tbody>\n<tr style=\"height: 217px;\">\n<td style=\"width: 33.3333%; height: 217px;\">\n<p class=\"align-center\">5</p>\n<table style=\"color: var(--text-editor-body-color); font-family: var(--font-base); font-size: inherit; font-weight: var(--font-weight-normal); height: 124px;\" border=\"1\">\n<tbody>\n<tr style=\"height: 49px;\">\n<td class=\"align-center\" style=\"width: 196px; height: 49px;\">informations</td>\n</tr>\n<tr style=\"height: 49px;\">\n<td class=\"align-center\" style=\"width: 196px; height: 49px;\"><strong>analyses</strong></td>\n</tr>\n<tr style=\"height: 26px;\">\n<td class=\"align-center\" style=\"width: 196px; height: 26px;\">problème</td>\n</tr>\n</tbody>\n</table>\n</td>\n<td style=\"width: 33.3333%; height: 217px;\">\n<p class=\"align-center\">8</p>\n<table style=\"border-collapse: collapse; width: 100%;\" border=\"1\">\n<tbody>\n<tr>\n<td class=\"align-center\" style=\"width: 100%;\">commandes</td>\n</tr>\n<tr>\n<td class=\"align-center\" style=\"width: 100%;\"><strong>pilotage</strong></td>\n</tr>\n<tr>\n<td style=\"width: 100%;\"> </td>\n</tr>\n</tbody>\n</table>\n</td>\n<td style=\"width: 33.3333%; height: 217px; background-color: #fbeeb8;\">\n<p class=\"align-center\"><strong>2 - parties prenantes</strong></p>\n<table style=\"border-collapse: collapse; width: 100%; background-color: #f1c40f;\" border=\"1\">\n<tbody>\n<tr>\n<td class=\"align-center\" style=\"width: 100%;\">\n<p>identification</p>\n<p>communications</p>\n</td>\n</tr>\n<tr>\n<td class=\"align-center\" style=\"width: 100%;\"><span style=\"font-size: 17.0176px;\">objectifs/besoins</span></td>\n</tr>\n<tr>\n<td class=\"align-center\" style=\"width: 100%;\">Charte de projet</td>\n</tr>\n</tbody>\n</table>\n</td>\n</tr>\n<tr style=\"height: 217px;\">\n<td class=\"align-center\" style=\"width: 33.3333%; height: 217px;\">6 - \n<table class=\"align-center\" style=\"border-collapse: collapse; width: 100%; height: 147px;\" border=\"1\">\n<tbody>\n<tr style=\"height: 49px;\">\n<td class=\"align-left\" style=\"width: 100%; height: 49px;\"> </td>\n</tr>\n<tr style=\"height: 49px;\">\n<td style=\"width: 100%; height: 49px;\"><strong>plans</strong></td>\n</tr>\n<tr style=\"height: 49px;\">\n<td style=\"width: 100%; height: 49px;\">instructions</td>\n</tr>\n</tbody>\n</table>\n</td>\n<td class=\"align-center\" style=\"width: 33.3333%; height: 217px;\">9\n<table class=\"align-center\" style=\"border-collapse: collapse; width: 100%;\" border=\"1\">\n<tbody>\n<tr>\n<td style=\"width: 100%;\"> </td>\n</tr>\n<tr>\n<td style=\"width: 100%;\"><strong>intégration</strong></td>\n</tr>\n<tr>\n<td style=\"width: 100%;\"> </td>\n</tr>\n</tbody>\n</table>\n</td>\n<td class=\"align-center\" style=\"width: 33.3333%; height: 217px;\"><strong>3 - intervenants</strong>\n<table class=\"align-center\" style=\"border-collapse: collapse; width: 100%;\" border=\"1\">\n<tbody>\n<tr>\n<td style=\"width: 100%;\"> </td>\n</tr>\n<tr>\n<td style=\"width: 100%;\"> </td>\n</tr>\n<tr>\n<td style=\"width: 100%;\"> </td>\n</tr>\n</tbody>\n</table>\n</td>\n</tr>\n<tr style=\"height: 63px;\">\n<td class=\"align-center\" style=\"width: 33.3333%; height: 63px;\">7\n<table class=\"align-center\" style=\"border-collapse: collapse; width: 100%;\" border=\"1\">\n<tbody>\n<tr>\n<td style=\"width: 100%;\"> </td>\n</tr>\n<tr>\n<td style=\"width: 100%;\"> </td>\n</tr>\n<tr>\n<td style=\"width: 100%;\">solution</td>\n</tr>\n</tbody>\n</table>\n</td>\n<td class=\"align-center\" style=\"width: 33.3333%; height: 63px;\"><strong>1 - Mission</strong>\n<table style=\"border-collapse: collapse; width: 100%;\" border=\"1\">\n<tbody>\n<tr>\n<td style=\"width: 100%;\"> </td>\n</tr>\n<tr>\n<td style=\"width: 100%;\">Mission</td>\n</tr>\n<tr>\n<td style=\"width: 100%;\">Fiche de projet</td>\n</tr>\n</tbody>\n</table>\n</td>\n<td class=\"align-center\" style=\"width: 33.3333%; height: 63px;\">4\n<table style=\"border-collapse: collapse; width: 100%;\" border=\"1\">\n<tbody>\n<tr>\n<td style=\"width: 100%;\"> </td>\n</tr>\n<tr>\n<td style=\"width: 100%;\"> </td>\n</tr>\n<tr>\n<td style=\"width: 100%;\"> </td>\n</tr>\n</tbody>\n</table>\n</td>\n</tr>\n</tbody>\n</table>\n<p> </p>\n<table style=\"border-collapse: collapse; width: 100%;\" border=\"1\">\n<tbody>\n<tr>\n<td class=\"align-center\" style=\"width: 229px;\">analyses/informations</td>\n<td class=\"align-center\" style=\"width: 227px;\">objectifs/direction</td>\n<td class=\"align-center\" style=\"width: 234px; background-color: #fbeeb8;\">\n<p>parties prenantes</p>\n<p>/communications</p>\n</td>\n</tr>\n<tr>\n<td class=\"align-center\" style=\"width: 229px;\">plans/instructions</td>\n<td class=\"align-center\" style=\"width: 227px;\">pilotage/coordination</td>\n<td class=\"align-center\" style=\"width: 234px;\">intervenants/compétences</td>\n</tr>\n<tr>\n<td class=\"align-center\" style=\"width: 229px;\">solutions</td>\n<td class=\"align-center\" style=\"width: 227px;\">qualité/contrôle</td>\n<td class=\"align-center\" style=\"width: 234px;\">changement/performance</td>\n</tr>\n</tbody>\n</table>",
            "author": {
                "name": "Ravi Sand"
            },
            "tags": [
            ],
            "date_published": "2021-01-23T16:05:48-05:00",
            "date_modified": "2021-01-30T15:31:54-05:00"
        },
        {
            "id": "https://ravisand.gitlab.io/publii/projet/",
            "url": "https://ravisand.gitlab.io/publii/projet/",
            "title": "ennea2",
            "summary": "Qu'est-ce qu'un projet? Un projet se compare à un processus, c'est à&hellip;",
            "content_html": "<p>Qu'est-ce qu'un projet?</p>\n<p>Un projet se compare à un processus, c'est à dire une suite d'activités par des ressources selon des instructions pour produire en continu, sauf qu'un </p>\n<p> </p>\n<table style=\"border-collapse: collapse; width: 100%;\" border=\"1\">\n<tbody>\n<tr>\n<td class=\"align-center\" style=\"width: 231px;\">analyses/informations</td>\n<td class=\"align-center\" style=\"width: 229px;\">objectifs/direction</td>\n<td class=\"align-center\" style=\"width: 230px; background-color: #fbeeb8;\">\n<p>parties prenantes</p>\n<p>/communications</p>\n</td>\n</tr>\n<tr>\n<td class=\"align-center\" style=\"width: 231px;\">plans/instructions</td>\n<td class=\"align-center\" style=\"width: 229px;\">pilotage/coordination</td>\n<td class=\"align-center\" style=\"width: 230px;\">intervenants/compétences</td>\n</tr>\n<tr>\n<td class=\"align-center\" style=\"width: 231px;\">solutions</td>\n<td class=\"align-center\" style=\"width: 229px;\">qualité/contrôle</td>\n<td class=\"align-center\" style=\"width: 230px;\">changement/performance</td>\n</tr>\n</tbody>\n</table>\n<p> </p>",
            "author": {
                "name": "Ravi Sand"
            },
            "tags": [
            ],
            "date_published": "2021-01-23T15:40:38-05:00",
            "date_modified": "2021-01-30T15:31:46-05:00"
        },
        {
            "id": "https://ravisand.gitlab.io/publii/enn/",
            "url": "https://ravisand.gitlab.io/publii/enn/",
            "title": "ennea1 ",
            "summary": "STRATÉGIE 1, 2, 3, 4, 5, 6, 7, 8 et 9 sont&hellip;",
            "content_html": "<table class=\"align-center\" style=\"height: 127px; width: 446px;\" border=\"1\" width=\"406\">\n<tbody>\n<tr style=\"height: 73px;\">\n<td style=\"height: 73px; width: 164px;\">\n<p>STRATÉGIE</p>\n</td>\n<td style=\"height: 73px; width: 146px;\">VALEURS</td>\n<td style=\"height: 73px; width: 135px;\">INCLUSION</td>\n</tr>\n<tr style=\"height: 49px;\">\n<td style=\"height: 49px; width: 164px;\">PLAN</td>\n<td style=\"height: 49px; width: 146px;\"> </td>\n<td style=\"height: 49px; width: 135px;\">POUVOIR</td>\n</tr>\n<tr style=\"height: 49px;\">\n<td style=\"height: 49px; width: 164px;\">OPTIONS</td>\n<td style=\"height: 49px; width: 146px;\">BESOINS</td>\n<td style=\"height: 49px; width: 135px;\">EXPRESSION</td>\n</tr>\n</tbody>\n</table>\n<p> </p>\n<table class=\"align-center\" style=\"border-collapse: collapse; width: 150px; height: 149px; background-color: #ffffff; border-color: #000000; border-style: solid;\" border=\"50\">\n<tbody>\n<tr style=\"height: 49px;\">\n<td class=\"align-center\" style=\"width: 50px; height: 49px;\"> </td>\n<td style=\"width: 49px; height: 49px;\"> </td>\n<td style=\"width: 50px; height: 49px;\"> </td>\n</tr>\n<tr style=\"height: 50px;\">\n<td style=\"width: 50px; height: 50px;\"> </td>\n<td style=\"width: 49px; height: 50px;\"> </td>\n<td style=\"width: 50px; height: 50px;\"> </td>\n</tr>\n<tr style=\"height: 50px;\">\n<td style=\"width: 50px; height: 50px;\"> </td>\n<td style=\"width: 49px; height: 50px;\"> </td>\n<td style=\"width: 50px; height: 50px;\"> </td>\n</tr>\n</tbody>\n</table>\n<p class=\"align-center\">1, 2, 3, 4, 5, 6, 7, 8 et 9 sont les  outils essentiels pour réaliser d grands projets et Vous n'avez même pas vraiment besoin d'utiliser le 0.</p>\n<ul style=\"list-style-type: square;\">\n<li> </li>\n<li>exploring 9</li>\n<li>playing with 9</li>\n<li>expressing with 9</li>\n<li>building with 9</li>\n</ul>\n<table style=\"border-collapse: collapse; width: 100%; border-color: #3598db; border-style: solid;\" border=\"50\">\n<tbody>\n<tr>\n<td class=\"align-center\" style=\"width: 33.3333%;\"> </td>\n<td class=\"align-center\" style=\"width: 33.3333%;\">FRONT</td>\n<td class=\"align-center\" style=\"width: 33.3333%;\"> </td>\n</tr>\n<tr>\n<td class=\"align-center\" style=\"width: 33.3333%;\">LEFT</td>\n<td class=\"align-center\" style=\"width: 33.3333%;\">PLAY/PAUSE</td>\n<td class=\"align-center\" style=\"width: 33.3333%;\">RIGHT</td>\n</tr>\n<tr>\n<td class=\"align-center\" style=\"width: 33.3333%;\"> </td>\n<td class=\"align-center\" style=\"width: 33.3333%;\">REAR</td>\n<td class=\"align-center\" style=\"width: 33.3333%;\"> </td>\n</tr>\n</tbody>\n</table>\n<table style=\"border-collapse: collapse; width: 100%; height: 147px;\" border=\"1\">\n<tbody>\n<tr style=\"height: 49px;\">\n<td class=\"align-center\" style=\"width: 33.3333%; height: 49px;\">EXPLORE</td>\n<td class=\"align-center\" style=\"width: 33.3333%; height: 49px;\">IMPRESS</td>\n<td class=\"align-center\" style=\"width: 33.3333%; height: 49px;\">COOPERATE</td>\n</tr>\n<tr style=\"height: 49px;\">\n<td class=\"align-center\" style=\"width: 33.3333%; height: 49px;\"> </td>\n<td class=\"align-center\" style=\"width: 33.3333%; height: 49px;\">PLAY</td>\n<td class=\"align-center\" style=\"width: 33.3333%; height: 49px;\">ACHIEVE</td>\n</tr>\n<tr style=\"height: 49px;\">\n<td class=\"align-center\" style=\"width: 33.3333%; height: 49px;\">INVENT</td>\n<td class=\"align-center\" style=\"width: 33.3333%; height: 49px;\">BE</td>\n<td class=\"align-center\" style=\"width: 33.3333%; height: 49px;\">EXPRESS</td>\n</tr>\n</tbody>\n</table>",
            "author": {
                "name": "Ravi Sand"
            },
            "tags": [
            ],
            "date_published": "2021-01-22T21:52:07-05:00",
            "date_modified": "2021-01-30T15:31:05-05:00"
        }
    ]
}
